module github.com/livepeer/catalyst-api

go 1.20

require (
	contrib.go.opencensus.io/exporter/prometheus v0.4.2
	github.com/DATA-DOG/go-sqlmock v1.5.0
	github.com/aws/aws-sdk-go v1.44.273
	github.com/cenkalti/backoff/v4 v4.2.1
	github.com/cucumber/godog v0.12.5
	github.com/d1str0/pkcs7 v0.0.0-20200424205038-d65c16a5759a
	github.com/golang-jwt/jwt/v4 v4.5.0
	github.com/golang/glog v1.1.1
	github.com/golang/mock v1.6.0
	github.com/hashicorp/memberlist v0.5.0
	github.com/hashicorp/serf v0.10.1
	github.com/julienschmidt/httprouter v1.3.0
	github.com/lib/pq v1.10.9
	github.com/livepeer/go-api-client v0.4.7
	github.com/livepeer/go-tools v0.3.0
	github.com/livepeer/joy4 v0.1.1
	github.com/livepeer/livepeer-data v0.7.1
	github.com/livepeer/m3u8 v0.11.1
	github.com/minio/madmin-go v1.7.5
	github.com/peterbourgon/ff/v3 v3.3.1
	github.com/pquerna/cachecontrol v0.1.0
	github.com/prometheus/client_golang v1.15.1
	github.com/stretchr/testify v1.8.4
	github.com/u2takey/ffmpeg-go v0.4.1
	github.com/xeipuuv/gojsonschema v1.2.0
	go.opencensus.io v0.24.0
	golang.org/x/sync v0.2.0
	golang.org/x/text v0.9.0
	gopkg.in/vansante/go-ffprobe.v2 v2.1.2-0.20230412093356-81f7fcbea828
	sigs.k8s.io/yaml v1.3.0
)

require (
	cloud.google.com/go v0.110.2 // indirect
	cloud.google.com/go/compute v1.20.0 // indirect
	cloud.google.com/go/compute/metadata v0.2.3 // indirect
	cloud.google.com/go/iam v1.1.0 // indirect
	cloud.google.com/go/storage v1.30.1 // indirect
	github.com/armon/go-metrics v0.0.0-20180917152333-f0300d1749da // indirect
	github.com/beorn7/perks v1.0.1 // indirect
	github.com/cespare/xxhash/v2 v2.2.0 // indirect
	github.com/cucumber/gherkin-go/v19 v19.0.3 // indirect
	github.com/cucumber/messages-go/v16 v16.0.1 // indirect
	github.com/eventials/go-tus v0.0.0-20220610120217-05d0564bb571 // indirect
	github.com/fatih/color v1.13.0 // indirect
	github.com/go-logr/logr v1.2.4 // indirect
	github.com/go-logr/stdr v1.2.2 // indirect
	github.com/go-ole/go-ole v1.2.6 // indirect
	github.com/gofrs/uuid v4.0.0+incompatible // indirect
	github.com/gogo/protobuf v1.3.2 // indirect
	github.com/golang/groupcache v0.0.0-20210331224755-41bb18bfe9da // indirect
	github.com/golang/protobuf v1.5.3 // indirect
	github.com/golang/snappy v0.0.4 // indirect
	github.com/google/btree v1.0.0 // indirect
	github.com/google/go-cmp v0.5.9 // indirect
	github.com/google/s2a-go v0.1.4 // indirect
	github.com/google/uuid v1.3.0 // indirect
	github.com/googleapis/enterprise-certificate-proxy v0.2.3 // indirect
	github.com/googleapis/gax-go/v2 v2.10.0 // indirect
	github.com/gopherjs/gopherjs v0.0.0-20220104163920-15ed2e8cf2bd // indirect
	github.com/hashicorp/errwrap v1.0.0 // indirect
	github.com/hashicorp/go-cleanhttp v0.5.2 // indirect
	github.com/hashicorp/go-hclog v0.16.2 // indirect
	github.com/hashicorp/go-immutable-radix v1.3.1 // indirect
	github.com/hashicorp/go-memdb v1.3.0 // indirect
	github.com/hashicorp/go-msgpack v0.5.3 // indirect
	github.com/hashicorp/go-multierror v1.1.0 // indirect
	github.com/hashicorp/go-sockaddr v1.0.0 // indirect
	github.com/hashicorp/go-uuid v1.0.3 // indirect
	github.com/hashicorp/golang-lru v0.5.5-0.20210104140557-80c98217689d // indirect
	github.com/ipfs/bbloom v0.0.4 // indirect
	github.com/ipfs/go-block-format v0.1.2 // indirect
	github.com/ipfs/go-blockservice v0.5.2 // indirect
	github.com/ipfs/go-cid v0.4.1 // indirect
	github.com/ipfs/go-datastore v0.6.0 // indirect
	github.com/ipfs/go-ipfs-blockstore v1.3.1 // indirect
	github.com/ipfs/go-ipfs-ds-help v1.1.1 // indirect
	github.com/ipfs/go-ipfs-exchange-interface v0.2.1 // indirect
	github.com/ipfs/go-ipfs-util v0.0.3 // indirect
	github.com/ipfs/go-ipld-cbor v0.0.6 // indirect
	github.com/ipfs/go-ipld-format v0.4.0 // indirect
	github.com/ipfs/go-ipld-legacy v0.1.1 // indirect
	github.com/ipfs/go-libipfs v0.4.1 // indirect
	github.com/ipfs/go-log v1.0.5 // indirect
	github.com/ipfs/go-log/v2 v2.5.1 // indirect
	github.com/ipfs/go-merkledag v0.10.0 // indirect
	github.com/ipfs/go-metrics-interface v0.0.1 // indirect
	github.com/ipfs/go-unixfs v0.4.6 // indirect
	github.com/ipfs/go-verifcid v0.0.3 // indirect
	github.com/ipld/go-car v0.6.0 // indirect
	github.com/ipld/go-codec-dagpb v1.6.0 // indirect
	github.com/ipld/go-ipld-prime v0.20.0 // indirect
	github.com/jbenet/goprocess v0.1.4 // indirect
	github.com/jmespath/go-jmespath v0.4.0 // indirect
	github.com/json-iterator/go v1.1.12 // indirect
	github.com/klauspost/compress v1.16.3 // indirect
	github.com/klauspost/cpuid/v2 v2.2.4 // indirect
	github.com/lufia/plan9stats v0.0.0-20220913051719-115f729f3c8c // indirect
	github.com/mattn/go-colorable v0.1.13 // indirect
	github.com/mattn/go-isatty v0.0.19 // indirect
	github.com/matttproud/golang_protobuf_extensions v1.0.4 // indirect
	github.com/miekg/dns v1.1.50 // indirect
	github.com/minio/minio-go/v7 v7.0.45 // indirect
	github.com/minio/sha256-simd v1.0.1 // indirect
	github.com/modern-go/concurrent v0.0.0-20180306012644-bacd9c7ef1dd // indirect
	github.com/modern-go/reflect2 v1.0.2 // indirect
	github.com/mr-tron/base58 v1.2.0 // indirect
	github.com/multiformats/go-base32 v0.1.0 // indirect
	github.com/multiformats/go-base36 v0.2.0 // indirect
	github.com/multiformats/go-multibase v0.2.0 // indirect
	github.com/multiformats/go-multihash v0.2.2 // indirect
	github.com/multiformats/go-varint v0.0.7 // indirect
	github.com/opentracing/opentracing-go v1.2.0 // indirect
	github.com/philhofer/fwd v1.1.2-0.20210722190033-5c56ac6d0bb9 // indirect
	github.com/pierrec/lz4 v2.6.1+incompatible // indirect
	github.com/pkg/errors v0.9.1 // indirect
	github.com/polydawn/refmt v0.89.0 // indirect
	github.com/power-devops/perfstat v0.0.0-20220216144756-c35f1ee13d7c // indirect
	github.com/prometheus/client_model v0.3.0 // indirect
	github.com/prometheus/common v0.42.0 // indirect
	github.com/prometheus/procfs v0.9.0 // indirect
	github.com/prometheus/statsd_exporter v0.22.7 // indirect
	github.com/rabbitmq/amqp091-go v1.8.0 // indirect
	github.com/rabbitmq/rabbitmq-stream-go-client v1.1.1 // indirect
	github.com/rs/xid v1.4.0 // indirect
	github.com/sean-/seed v0.0.0-20170313163322-e2103e2c3529 // indirect
	github.com/secure-io/sio-go v0.3.1 // indirect
	github.com/shirou/gopsutil/v3 v3.22.9 // indirect
	github.com/spaolacci/murmur3 v1.1.0 // indirect
	github.com/spf13/pflag v1.0.5 // indirect
	github.com/stretchr/objx v0.5.0 // indirect
	github.com/tinylib/msgp v1.1.7-0.20220719154719-f3635b96e483 // indirect
	github.com/tklauser/go-sysconf v0.3.11 // indirect
	github.com/tklauser/numcpus v0.6.0 // indirect
	github.com/tomnomnom/linkheader v0.0.0-20180905144013-02ca5825eb80 // indirect
	github.com/u2takey/go-utils v0.3.1 // indirect
	github.com/whyrusleeping/cbor-gen v0.0.0-20230418232409-daab9ece03a0 // indirect
	github.com/yusufpapurcu/wmi v1.2.2 // indirect
	go.opentelemetry.io/otel v1.16.0 // indirect
	go.opentelemetry.io/otel/metric v1.16.0 // indirect
	go.opentelemetry.io/otel/trace v1.16.0 // indirect
	go.uber.org/atomic v1.11.0 // indirect
	go.uber.org/multierr v1.11.0 // indirect
	go.uber.org/zap v1.24.0 // indirect
	golang.org/x/crypto v0.9.0 // indirect
	golang.org/x/mod v0.8.0 // indirect
	golang.org/x/net v0.10.0 // indirect
	golang.org/x/oauth2 v0.8.0 // indirect
	golang.org/x/sys v0.8.0 // indirect
	golang.org/x/tools v0.6.0 // indirect
	golang.org/x/xerrors v0.0.0-20220907171357-04be3eba64a2 // indirect
	google.golang.org/api v0.125.0 // indirect
	google.golang.org/appengine v1.6.7 // indirect
	google.golang.org/genproto v0.0.0-20230530153820-e85fd2cbaebc // indirect
	google.golang.org/genproto/googleapis/api v0.0.0-20230530153820-e85fd2cbaebc // indirect
	google.golang.org/genproto/googleapis/rpc v0.0.0-20230530153820-e85fd2cbaebc // indirect
	google.golang.org/grpc v1.55.0 // indirect
	google.golang.org/protobuf v1.30.0 // indirect
	gopkg.in/ini.v1 v1.67.0 // indirect
	lukechampine.com/blake3 v1.2.1 // indirect
)

require (
	github.com/davecgh/go-spew v1.1.1 // indirect
	github.com/go-kit/log v0.2.1
	github.com/go-logfmt/logfmt v0.5.1 // indirect
	github.com/grafov/m3u8 v0.12.0
	github.com/hashicorp/go-retryablehttp v0.7.2
	github.com/patrickmn/go-cache v2.1.0+incompatible
	github.com/pmezard/go-difflib v1.0.1-0.20181226105442-5d4384ee4fb2 // indirect
	github.com/xeipuuv/gojsonpointer v0.0.0-20180127040702-4e3ac2762d5f // indirect
	github.com/xeipuuv/gojsonreference v0.0.0-20180127040603-bd5ef7bd5415 // indirect
	gopkg.in/yaml.v2 v2.4.0 // indirect
	gopkg.in/yaml.v3 v3.0.1 // indirect
)
